%YAML 1.1
%TAG !u! tag:unity3d.com,2011:
--- !u!114 &11400000
MonoBehaviour:
  m_ObjectHideFlags: 0
  m_CorrespondingSourceObject: {fileID: 0}
  m_PrefabInstance: {fileID: 0}
  m_PrefabAsset: {fileID: 0}
  m_GameObject: {fileID: 0}
  m_Enabled: 1
  m_EditorHideFlags: 0
  m_Script: {fileID: 11500000, guid: b38f9814258f9a2419217e59ef4a4e66, type: 3}
  m_Name: LevelData_1
  m_EditorClassIdentifier: 
  Level_Settings:
    id: 1
    text: Level 1
    open: 0
    repeatable: 1
  enemies:
  - EnemyPrefab: {fileID: 1405305032993240720, guid: afe71f699fafc00479c2b0da1946d417,
      type: 3}
    amount: 2
