%YAML 1.1
%TAG !u! tag:unity3d.com,2011:
--- !u!114 &11400000
MonoBehaviour:
  m_ObjectHideFlags: 0
  m_CorrespondingSourceObject: {fileID: 0}
  m_PrefabInstance: {fileID: 0}
  m_PrefabAsset: {fileID: 0}
  m_GameObject: {fileID: 0}
  m_Enabled: 1
  m_EditorHideFlags: 0
  m_Script: {fileID: 11500000, guid: b38f9814258f9a2419217e59ef4a4e66, type: 3}
  m_Name: LevelData_8
  m_EditorClassIdentifier: 
  Level_Settings:
    id: 8
    text: Level 8
    open: 0
    repeatable: 1
  enemies:
  - EnemyPrefab: {fileID: 1405305032993240720, guid: a6b89ae9dbdb4e846a3637523af35bda,
      type: 3}
    amount: 1
  - EnemyPrefab: {fileID: 1405305032993240720, guid: b395995dee2c18f48bbc4f78d6a8be81,
      type: 3}
    amount: 1
  - EnemyPrefab: {fileID: 1405305032993240720, guid: 8f414c7b5680d6d41a560501e44ef6b6,
      type: 3}
    amount: 3
