{
  "project_info": {
    "project_number": "603689140552",
    "firebase_url": "https://forst-spirit-69431750.firebaseio.com",
    "project_id": "forst-spirit-69431750",
    "storage_bucket": "forst-spirit-69431750.appspot.com"
  },
  "client": [
    {
      "client_info": {
        "mobilesdk_app_id": "1:603689140552:android:ed8f323b5164c741df337d",
        "android_client_info": {
          "package_name": "com.ks.ForestSpirit"
        }
      },
      "oauth_client": [
        {
          "client_id": "603689140552-3lsamkicu9ftgao8jiv3lmongij7d9m2.apps.googleusercontent.com",
          "client_type": 3
        }
      ],
      "api_key": [
        {
          "current_key": "AIzaSyB7wc38_X2Z-QFx6V0FtCBE_pj8I0w-XDc"
        }
      ],
      "services": {
        "appinvite_service": {
          "other_platform_oauth_client": [
            {
              "client_id": "603689140552-3lsamkicu9ftgao8jiv3lmongij7d9m2.apps.googleusercontent.com",
              "client_type": 3
            }
          ]
        }
      }
    }
  ],
  "configuration_version": "1"
}