%YAML 1.1
%TAG !u! tag:unity3d.com,2011:
--- !u!114 &11400000
MonoBehaviour:
  m_ObjectHideFlags: 0
  m_CorrespondingSourceObject: {fileID: 0}
  m_PrefabInstance: {fileID: 0}
  m_PrefabAsset: {fileID: 0}
  m_GameObject: {fileID: 0}
  m_Enabled: 1
  m_EditorHideFlags: 0
  m_Script: {fileID: 11500000, guid: b38f9814258f9a2419217e59ef4a4e66, type: 3}
  m_Name: LevelData_4
  m_EditorClassIdentifier: 
  open: 0
  repeatable: 0
  enableBounty: 1
  sprite: {fileID: -4166000864571609707, guid: 01c96322392cfa345b134535a3d8019e, type: 3}
  size: {x: 200, y: 200}
  text: Bonus Level
  enemies:
  - EnemyPrefab: {fileID: 1405305032993240720, guid: fef1bbb28c985df4cabcd971780edf5b,
      type: 3}
    amount: 1
