%YAML 1.1
%TAG !u! tag:unity3d.com,2011:
--- !u!114 &11400000
MonoBehaviour:
  m_ObjectHideFlags: 0
  m_CorrespondingSourceObject: {fileID: 0}
  m_PrefabInstance: {fileID: 0}
  m_PrefabAsset: {fileID: 0}
  m_GameObject: {fileID: 0}
  m_Enabled: 1
  m_EditorHideFlags: 0
  m_Script: {fileID: 11500000, guid: b38f9814258f9a2419217e59ef4a4e66, type: 3}
  m_Name: LevelData_5
  m_EditorClassIdentifier: 
  open: 0
  repeatable: 1
  enableBounty: 0
  sprite: {fileID: -3280296047303442075, guid: 0a53d7a85d7e6eb4b9a8a94bed5ff8c3, type: 3}
  size: {x: 150, y: 150}
  text: Level 5
  enemies:
  - EnemyPrefab: {fileID: 1405305032993240720, guid: a6b89ae9dbdb4e846a3637523af35bda,
      type: 3}
    amount: 1
  - EnemyPrefab: {fileID: 1405305032993240720, guid: b395995dee2c18f48bbc4f78d6a8be81,
      type: 3}
    amount: 1
