%YAML 1.1
%TAG !u! tag:unity3d.com,2011:
--- !u!114 &11400000
MonoBehaviour:
  m_ObjectHideFlags: 0
  m_CorrespondingSourceObject: {fileID: 0}
  m_PrefabInstance: {fileID: 0}
  m_PrefabAsset: {fileID: 0}
  m_GameObject: {fileID: 0}
  m_Enabled: 1
  m_EditorHideFlags: 0
  m_Script: {fileID: 11500000, guid: 24a4ec9f9406d124b818b5d0698be1e7, type: 3}
  m_Name: DefaultGameVars
  m_EditorClassIdentifier: 
  DefaultStats:
    gold: 10
    hp:
      stat: 0
      value: 10
      price: 10
      level: 1
      amountPerLevel: 10
      sprite: 0
    atk:
      stat: 1
      value: 1
      price: 10
      level: 1
      amountPerLevel: 1
      sprite: 0
    matk:
      stat: 2
      value: 1
      price: 10
      level: 1
      amountPerLevel: 1
      sprite: 0
    def:
      stat: 3
      value: 1
      price: 10
      level: 1
      amountPerLevel: 1
      sprite: 0
  DefaultLevels:
  - {fileID: 11400000, guid: f251a734db620eb40a35d60be57991c6, type: 2}
  - {fileID: 11400000, guid: 0e9cc5dcb2b17e242acabeeae616bccd, type: 2}
  - {fileID: 11400000, guid: a6c7c9c597f53174c80d59fee664c0c4, type: 2}
  - {fileID: 11400000, guid: b682376380151b641b50801eb6fdf5b3, type: 2}
  - {fileID: 11400000, guid: 8111e75ce001d8048bb404e2064b0370, type: 2}
  - {fileID: 11400000, guid: e069ce5998ce6394d882d424ff446c3e, type: 2}
  - {fileID: 11400000, guid: cd96bc77710dcf242826961769a2fe65, type: 2}
  - {fileID: 11400000, guid: 6411e8ccd2dde524891fa3575ae8c198, type: 2}
  - {fileID: 11400000, guid: f2e1ad9601e01c549944e7d3255337a5, type: 2}
  - {fileID: 11400000, guid: c77ea3ea4f494e141bab77e707a1553c, type: 2}
  - {fileID: 11400000, guid: 63efa365af097454189a72275ec499b6, type: 2}
  - {fileID: 11400000, guid: 1162a095c9d1ee041ab8269147b18d32, type: 2}
  - {fileID: 11400000, guid: 9b21ff6bf293c2a429e5956d2c3d3cc2, type: 2}
  - {fileID: 11400000, guid: de69a5156de12724388c709d3f2e6371, type: 2}
  - {fileID: 11400000, guid: 2db764b94b522594091bb1ed9d4ac3b7, type: 2}
  - {fileID: 11400000, guid: fc8d6746e54ab0a45a82c8ac0cec3f16, type: 2}
  - {fileID: 11400000, guid: 85910c93133f3fa479b7d7acc5cb24b5, type: 2}
  - {fileID: 11400000, guid: afe364e42b3642b47bb537704efc136f, type: 2}
