%YAML 1.1
%TAG !u! tag:unity3d.com,2011:
--- !u!114 &11400000
MonoBehaviour:
  m_ObjectHideFlags: 0
  m_CorrespondingSourceObject: {fileID: 0}
  m_PrefabInstance: {fileID: 0}
  m_PrefabAsset: {fileID: 0}
  m_GameObject: {fileID: 0}
  m_Enabled: 1
  m_EditorHideFlags: 0
  m_Script: {fileID: 11500000, guid: 27d75e06594af4445ae029488fad2b90, type: 3}
  m_Name: SpriteResourceData
  m_EditorClassIdentifier: 
  resources:
  - name: 0
    sprite: {fileID: 21300000, guid: 83f168b0b8ba540428e1d7aafe46fa92, type: 3}
  - name: 1
    sprite: {fileID: 21300000, guid: 8915fe0c7a018374ab4b700c9871de05, type: 3}
  - name: 2
    sprite: {fileID: 21300000, guid: b1622cbdb15e4864eabeff89df01cb8f, type: 3}
  - name: 3
    sprite: {fileID: 21300000, guid: f5bb8b27ef681ff48a9d09ce900e80da, type: 3}
  - name: 4
    sprite: {fileID: 21300000, guid: b1622cbdb15e4864eabeff89df01cb8f, type: 3}
  - name: 5
    sprite: {fileID: 21300000, guid: 5222a8c4e92af254f8d8bd447d1d8b1d, type: 3}
  - name: 6
    sprite: {fileID: 21300000, guid: 183babe497f48214592d4889a6ee5d20, type: 3}
